(kicad_pcb (version 20171130) (host pcbnew "(5.1.5-0-10_14)")

  (general
    (thickness 1.6)
    (drawings 85)
    (tracks 198)
    (zones 0)
    (modules 2)
    (nets 33)
  )

  (page A4)
  (title_block
    (title "Gameboy Cartridge Breakout")
    (rev v0)
    (comment 2 https://creativecommons.org/licenses/by/4.0/)
    (comment 3 "License: CC BY 4.0")
    (comment 4 "Author: Adil Soubki")
  )

  (layers
    (0 F.Cu signal)
    (31 B.Cu signal)
    (32 B.Adhes user)
    (33 F.Adhes user)
    (34 B.Paste user)
    (35 F.Paste user)
    (36 B.SilkS user)
    (37 F.SilkS user)
    (38 B.Mask user)
    (39 F.Mask user)
    (40 Dwgs.User user)
    (41 Cmts.User user)
    (42 Eco1.User user)
    (43 Eco2.User user)
    (44 Edge.Cuts user)
    (45 Margin user)
    (46 B.CrtYd user)
    (47 F.CrtYd user)
    (48 B.Fab user)
    (49 F.Fab user hide)
  )

  (setup
    (last_trace_width 0.25)
    (trace_clearance 0.2)
    (zone_clearance 0.508)
    (zone_45_only no)
    (trace_min 0.2)
    (via_size 0.8)
    (via_drill 0.4)
    (via_min_size 0.4)
    (via_min_drill 0.3)
    (uvia_size 0.3)
    (uvia_drill 0.1)
    (uvias_allowed no)
    (uvia_min_size 0.2)
    (uvia_min_drill 0.1)
    (edge_width 0.05)
    (segment_width 0.2)
    (pcb_text_width 0.3)
    (pcb_text_size 1.5 1.5)
    (mod_edge_width 0.12)
    (mod_text_size 1 1)
    (mod_text_width 0.15)
    (pad_size 1.524 1.524)
    (pad_drill 0.762)
    (pad_to_mask_clearance 0.051)
    (solder_mask_min_width 0.25)
    (aux_axis_origin 0 0)
    (visible_elements FFFFFF7F)
    (pcbplotparams
      (layerselection 0x010fc_ffffffff)
      (usegerberextensions false)
      (usegerberattributes false)
      (usegerberadvancedattributes false)
      (creategerberjobfile false)
      (excludeedgelayer true)
      (linewidth 0.100000)
      (plotframeref false)
      (viasonmask false)
      (mode 1)
      (useauxorigin false)
      (hpglpennumber 1)
      (hpglpenspeed 20)
      (hpglpendiameter 15.000000)
      (psnegative false)
      (psa4output false)
      (plotreference true)
      (plotvalue true)
      (plotinvisibletext false)
      (padsonsilk false)
      (subtractmaskfromsilk false)
      (outputformat 1)
      (mirror false)
      (drillshape 1)
      (scaleselection 1)
      (outputdirectory ""))
  )

  (net 0 "")
  (net 1 "Net-(CN1-Pad1)")
  (net 2 "Net-(CN1-Pad2)")
  (net 3 "Net-(CN1-Pad3)")
  (net 4 "Net-(CN1-Pad4)")
  (net 5 "Net-(CN1-Pad5)")
  (net 6 "Net-(CN1-Pad6)")
  (net 7 "Net-(CN1-Pad7)")
  (net 8 "Net-(CN1-Pad8)")
  (net 9 "Net-(CN1-Pad9)")
  (net 10 "Net-(CN1-Pad10)")
  (net 11 "Net-(CN1-Pad11)")
  (net 12 "Net-(CN1-Pad12)")
  (net 13 "Net-(CN1-Pad13)")
  (net 14 "Net-(CN1-Pad14)")
  (net 15 "Net-(CN1-Pad15)")
  (net 16 "Net-(CN1-Pad16)")
  (net 17 "Net-(CN1-Pad17)")
  (net 18 "Net-(CN1-Pad18)")
  (net 19 "Net-(CN1-Pad19)")
  (net 20 "Net-(CN1-Pad20)")
  (net 21 "Net-(CN1-Pad21)")
  (net 22 "Net-(CN1-Pad22)")
  (net 23 "Net-(CN1-Pad23)")
  (net 24 "Net-(CN1-Pad24)")
  (net 25 "Net-(CN1-Pad25)")
  (net 26 "Net-(CN1-Pad26)")
  (net 27 "Net-(CN1-Pad27)")
  (net 28 "Net-(CN1-Pad28)")
  (net 29 "Net-(CN1-Pad29)")
  (net 30 "Net-(CN1-Pad30)")
  (net 31 "Net-(CN1-Pad31)")
  (net 32 "Net-(CN1-Pad32)")

  (net_class Default "This is the default net class."
    (clearance 0.2)
    (trace_width 0.25)
    (via_dia 0.8)
    (via_drill 0.4)
    (uvia_dia 0.3)
    (uvia_drill 0.1)
    (add_net "Net-(CN1-Pad1)")
    (add_net "Net-(CN1-Pad10)")
    (add_net "Net-(CN1-Pad11)")
    (add_net "Net-(CN1-Pad12)")
    (add_net "Net-(CN1-Pad13)")
    (add_net "Net-(CN1-Pad14)")
    (add_net "Net-(CN1-Pad15)")
    (add_net "Net-(CN1-Pad16)")
    (add_net "Net-(CN1-Pad17)")
    (add_net "Net-(CN1-Pad18)")
    (add_net "Net-(CN1-Pad19)")
    (add_net "Net-(CN1-Pad2)")
    (add_net "Net-(CN1-Pad20)")
    (add_net "Net-(CN1-Pad21)")
    (add_net "Net-(CN1-Pad22)")
    (add_net "Net-(CN1-Pad23)")
    (add_net "Net-(CN1-Pad24)")
    (add_net "Net-(CN1-Pad25)")
    (add_net "Net-(CN1-Pad26)")
    (add_net "Net-(CN1-Pad27)")
    (add_net "Net-(CN1-Pad28)")
    (add_net "Net-(CN1-Pad29)")
    (add_net "Net-(CN1-Pad3)")
    (add_net "Net-(CN1-Pad30)")
    (add_net "Net-(CN1-Pad31)")
    (add_net "Net-(CN1-Pad32)")
    (add_net "Net-(CN1-Pad4)")
    (add_net "Net-(CN1-Pad5)")
    (add_net "Net-(CN1-Pad6)")
    (add_net "Net-(CN1-Pad7)")
    (add_net "Net-(CN1-Pad8)")
    (add_net "Net-(CN1-Pad9)")
  )

  (module gameboy:Cartridge (layer F.Cu) (tedit 5B6F11B9) (tstamp 5EBCC808)
    (at 173.366 149.058)
    (path /5EBD0AFB)
    (fp_text reference CN1 (at 0 0.5) (layer F.SilkS) hide
      (effects (font (size 1 1) (thickness 0.15)))
    )
    (fp_text value Gameboy_Cartridge_Connector (at 0 -0.5) (layer F.Fab)
      (effects (font (size 1 1) (thickness 0.15)))
    )
    (pad 1 smd rect (at -22 -2.54) (size 1.4 6) (drill (offset -0.2 0)) (layers F.Cu F.Mask)
      (net 1 "Net-(CN1-Pad1)"))
    (pad 2 smd rect (at -20.5 -2.5) (size 1 6) (layers F.Cu F.Mask)
      (net 2 "Net-(CN1-Pad2)"))
    (pad 3 smd rect (at -19 -2.5) (size 1 6) (layers F.Cu F.Mask)
      (net 3 "Net-(CN1-Pad3)"))
    (pad 4 smd rect (at -17.5 -2.5) (size 1 6) (layers F.Cu F.Mask)
      (net 4 "Net-(CN1-Pad4)"))
    (pad 5 smd rect (at -16 -2.5) (size 1 6) (layers F.Cu F.Mask)
      (net 5 "Net-(CN1-Pad5)"))
    (pad 6 smd rect (at -14.5 -2.5) (size 1 6) (layers F.Cu F.Mask)
      (net 6 "Net-(CN1-Pad6)"))
    (pad 7 smd rect (at -13 -2.5) (size 1 6) (layers F.Cu F.Mask)
      (net 7 "Net-(CN1-Pad7)"))
    (pad 8 smd rect (at -11.5 -2.5) (size 1 6) (layers F.Cu F.Mask)
      (net 8 "Net-(CN1-Pad8)"))
    (pad 9 smd rect (at -10 -2.5) (size 1 6) (layers F.Cu F.Mask)
      (net 9 "Net-(CN1-Pad9)"))
    (pad 10 smd rect (at -8.5 -2.5) (size 1 6) (layers F.Cu F.Mask)
      (net 10 "Net-(CN1-Pad10)"))
    (pad 11 smd rect (at -7 -2.5) (size 1 6) (layers F.Cu F.Mask)
      (net 11 "Net-(CN1-Pad11)"))
    (pad 12 smd rect (at -5.5 -2.5) (size 1 6) (layers F.Cu F.Mask)
      (net 12 "Net-(CN1-Pad12)"))
    (pad 13 smd rect (at -4 -2.5) (size 1 6) (layers F.Cu F.Mask)
      (net 13 "Net-(CN1-Pad13)"))
    (pad 14 smd rect (at -2.5 -2.5) (size 1 6) (layers F.Cu F.Mask)
      (net 14 "Net-(CN1-Pad14)"))
    (pad 15 smd rect (at -1 -2.5) (size 1 6) (layers F.Cu F.Mask)
      (net 15 "Net-(CN1-Pad15)"))
    (pad 16 smd rect (at 0.5 -2.5) (size 1 6) (layers F.Cu F.Mask)
      (net 16 "Net-(CN1-Pad16)"))
    (pad 17 smd rect (at 2 -2.5) (size 1 6) (layers F.Cu F.Mask)
      (net 17 "Net-(CN1-Pad17)"))
    (pad 18 smd rect (at 3.5 -2.5) (size 1 6) (layers F.Cu F.Mask)
      (net 18 "Net-(CN1-Pad18)"))
    (pad 19 smd rect (at 5 -2.5) (size 1 6) (layers F.Cu F.Mask)
      (net 19 "Net-(CN1-Pad19)"))
    (pad 20 smd rect (at 6.5 -2.5) (size 1 6) (layers F.Cu F.Mask)
      (net 20 "Net-(CN1-Pad20)"))
    (pad 21 smd rect (at 8 -2.5) (size 1 6) (layers F.Cu F.Mask)
      (net 21 "Net-(CN1-Pad21)"))
    (pad 22 smd rect (at 9.5 -2.5) (size 1 6) (layers F.Cu F.Mask)
      (net 22 "Net-(CN1-Pad22)"))
    (pad 23 smd rect (at 11 -2.5) (size 1 6) (layers F.Cu F.Mask)
      (net 23 "Net-(CN1-Pad23)"))
    (pad 24 smd rect (at 12.5 -2.5) (size 1 6) (layers F.Cu F.Mask)
      (net 24 "Net-(CN1-Pad24)"))
    (pad 25 smd rect (at 14 -2.5) (size 1 6) (layers F.Cu F.Mask)
      (net 25 "Net-(CN1-Pad25)"))
    (pad 26 smd rect (at 15.5 -2.5) (size 1 6) (layers F.Cu F.Mask)
      (net 26 "Net-(CN1-Pad26)"))
    (pad 27 smd rect (at 17 -2.5) (size 1 6) (layers F.Cu F.Mask)
      (net 27 "Net-(CN1-Pad27)"))
    (pad 28 smd rect (at 18.5 -2.5) (size 1 6) (layers F.Cu F.Mask)
      (net 28 "Net-(CN1-Pad28)"))
    (pad 29 smd rect (at 20 -2.5) (size 1 6) (layers F.Cu F.Mask)
      (net 29 "Net-(CN1-Pad29)"))
    (pad 30 smd rect (at 21.5 -2.5) (size 1 6) (layers F.Cu F.Mask)
      (net 30 "Net-(CN1-Pad30)"))
    (pad 31 smd rect (at 23 -2.5) (size 1 6) (layers F.Cu F.Mask)
      (net 31 "Net-(CN1-Pad31)"))
    (pad 32 smd rect (at 24.5 -2.5) (size 1.4 6) (drill (offset 0.2 0)) (layers F.Cu F.Mask)
      (net 32 "Net-(CN1-Pad32)"))
  )

  (module Connector_PinHeader_2.54mm:PinHeader_2x16_P2.54mm_Vertical (layer F.Cu) (tedit 59FED5CC) (tstamp 5EBDCA01)
    (at 152.527 78.486 90)
    (descr "Through hole straight pin header, 2x16, 2.54mm pitch, double rows")
    (tags "Through hole pin header THT 2x16 2.54mm double row")
    (path /5EBCF014)
    (fp_text reference J1 (at 1.651 2.286 90) (layer F.Fab)
      (effects (font (size 1 1) (thickness 0.15)))
    )
    (fp_text value Conn_02x16_Top_Bottom (at 1.27 40.43 90) (layer F.Fab)
      (effects (font (size 1 1) (thickness 0.15)))
    )
    (fp_line (start 0 -1.27) (end 3.81 -1.27) (layer F.Fab) (width 0.1))
    (fp_line (start 3.81 -1.27) (end 3.81 39.37) (layer F.Fab) (width 0.1))
    (fp_line (start 3.81 39.37) (end -1.27 39.37) (layer F.Fab) (width 0.1))
    (fp_line (start -1.27 39.37) (end -1.27 0) (layer F.Fab) (width 0.1))
    (fp_line (start -1.27 0) (end 0 -1.27) (layer F.Fab) (width 0.1))
    (fp_line (start -1.33 39.43) (end 3.87 39.43) (layer F.SilkS) (width 0.12))
    (fp_line (start -1.33 1.27) (end -1.33 39.43) (layer F.SilkS) (width 0.12))
    (fp_line (start 3.87 -1.33) (end 3.87 39.43) (layer F.SilkS) (width 0.12))
    (fp_line (start -1.33 1.27) (end 1.27 1.27) (layer F.SilkS) (width 0.12))
    (fp_line (start 1.27 1.27) (end 1.27 -1.33) (layer F.SilkS) (width 0.12))
    (fp_line (start 1.27 -1.33) (end 3.87 -1.33) (layer F.SilkS) (width 0.12))
    (fp_line (start -1.33 0) (end -1.33 -1.33) (layer F.SilkS) (width 0.12))
    (fp_line (start -1.33 -1.33) (end 0 -1.33) (layer F.SilkS) (width 0.12))
    (fp_line (start -1.8 -1.8) (end -1.8 39.9) (layer F.CrtYd) (width 0.05))
    (fp_line (start -1.8 39.9) (end 4.35 39.9) (layer F.CrtYd) (width 0.05))
    (fp_line (start 4.35 39.9) (end 4.35 -1.8) (layer F.CrtYd) (width 0.05))
    (fp_line (start 4.35 -1.8) (end -1.8 -1.8) (layer F.CrtYd) (width 0.05))
    (fp_text user %R (at 1.27 19.05) (layer F.Fab)
      (effects (font (size 1 1) (thickness 0.15)))
    )
    (pad 1 thru_hole rect (at 0 0 90) (size 1.7 1.7) (drill 1) (layers *.Cu *.Mask)
      (net 1 "Net-(CN1-Pad1)"))
    (pad 2 thru_hole oval (at 2.54 0 90) (size 1.7 1.7) (drill 1) (layers *.Cu *.Mask)
      (net 2 "Net-(CN1-Pad2)"))
    (pad 3 thru_hole oval (at 0 2.54 90) (size 1.7 1.7) (drill 1) (layers *.Cu *.Mask)
      (net 3 "Net-(CN1-Pad3)"))
    (pad 4 thru_hole oval (at 2.54 2.54 90) (size 1.7 1.7) (drill 1) (layers *.Cu *.Mask)
      (net 4 "Net-(CN1-Pad4)"))
    (pad 5 thru_hole oval (at 0 5.08 90) (size 1.7 1.7) (drill 1) (layers *.Cu *.Mask)
      (net 5 "Net-(CN1-Pad5)"))
    (pad 6 thru_hole oval (at 2.54 5.08 90) (size 1.7 1.7) (drill 1) (layers *.Cu *.Mask)
      (net 6 "Net-(CN1-Pad6)"))
    (pad 7 thru_hole oval (at 0 7.62 90) (size 1.7 1.7) (drill 1) (layers *.Cu *.Mask)
      (net 7 "Net-(CN1-Pad7)"))
    (pad 8 thru_hole oval (at 2.54 7.62 90) (size 1.7 1.7) (drill 1) (layers *.Cu *.Mask)
      (net 8 "Net-(CN1-Pad8)"))
    (pad 9 thru_hole oval (at 0 10.16 90) (size 1.7 1.7) (drill 1) (layers *.Cu *.Mask)
      (net 9 "Net-(CN1-Pad9)"))
    (pad 10 thru_hole oval (at 2.54 10.16 90) (size 1.7 1.7) (drill 1) (layers *.Cu *.Mask)
      (net 10 "Net-(CN1-Pad10)"))
    (pad 11 thru_hole oval (at 0 12.7 90) (size 1.7 1.7) (drill 1) (layers *.Cu *.Mask)
      (net 11 "Net-(CN1-Pad11)"))
    (pad 12 thru_hole oval (at 2.54 12.7 90) (size 1.7 1.7) (drill 1) (layers *.Cu *.Mask)
      (net 12 "Net-(CN1-Pad12)"))
    (pad 13 thru_hole oval (at 0 15.24 90) (size 1.7 1.7) (drill 1) (layers *.Cu *.Mask)
      (net 13 "Net-(CN1-Pad13)"))
    (pad 14 thru_hole oval (at 2.54 15.24 90) (size 1.7 1.7) (drill 1) (layers *.Cu *.Mask)
      (net 14 "Net-(CN1-Pad14)"))
    (pad 15 thru_hole oval (at 0 17.78 90) (size 1.7 1.7) (drill 1) (layers *.Cu *.Mask)
      (net 15 "Net-(CN1-Pad15)"))
    (pad 16 thru_hole oval (at 2.54 17.78 90) (size 1.7 1.7) (drill 1) (layers *.Cu *.Mask)
      (net 16 "Net-(CN1-Pad16)"))
    (pad 17 thru_hole oval (at 0 20.32 90) (size 1.7 1.7) (drill 1) (layers *.Cu *.Mask)
      (net 17 "Net-(CN1-Pad17)"))
    (pad 18 thru_hole oval (at 2.54 20.32 90) (size 1.7 1.7) (drill 1) (layers *.Cu *.Mask)
      (net 18 "Net-(CN1-Pad18)"))
    (pad 19 thru_hole oval (at 0 22.86 90) (size 1.7 1.7) (drill 1) (layers *.Cu *.Mask)
      (net 19 "Net-(CN1-Pad19)"))
    (pad 20 thru_hole oval (at 2.54 22.86 90) (size 1.7 1.7) (drill 1) (layers *.Cu *.Mask)
      (net 20 "Net-(CN1-Pad20)"))
    (pad 21 thru_hole oval (at 0 25.4 90) (size 1.7 1.7) (drill 1) (layers *.Cu *.Mask)
      (net 21 "Net-(CN1-Pad21)"))
    (pad 22 thru_hole oval (at 2.54 25.4 90) (size 1.7 1.7) (drill 1) (layers *.Cu *.Mask)
      (net 22 "Net-(CN1-Pad22)"))
    (pad 23 thru_hole oval (at 0 27.94 90) (size 1.7 1.7) (drill 1) (layers *.Cu *.Mask)
      (net 23 "Net-(CN1-Pad23)"))
    (pad 24 thru_hole oval (at 2.54 27.94 90) (size 1.7 1.7) (drill 1) (layers *.Cu *.Mask)
      (net 24 "Net-(CN1-Pad24)"))
    (pad 25 thru_hole oval (at 0 30.48 90) (size 1.7 1.7) (drill 1) (layers *.Cu *.Mask)
      (net 25 "Net-(CN1-Pad25)"))
    (pad 26 thru_hole oval (at 2.54 30.48 90) (size 1.7 1.7) (drill 1) (layers *.Cu *.Mask)
      (net 26 "Net-(CN1-Pad26)"))
    (pad 27 thru_hole oval (at 0 33.02 90) (size 1.7 1.7) (drill 1) (layers *.Cu *.Mask)
      (net 27 "Net-(CN1-Pad27)"))
    (pad 28 thru_hole oval (at 2.54 33.02 90) (size 1.7 1.7) (drill 1) (layers *.Cu *.Mask)
      (net 28 "Net-(CN1-Pad28)"))
    (pad 29 thru_hole oval (at 0 35.56 90) (size 1.7 1.7) (drill 1) (layers *.Cu *.Mask)
      (net 29 "Net-(CN1-Pad29)"))
    (pad 30 thru_hole oval (at 2.54 35.56 90) (size 1.7 1.7) (drill 1) (layers *.Cu *.Mask)
      (net 30 "Net-(CN1-Pad30)"))
    (pad 31 thru_hole oval (at 0 38.1 90) (size 1.7 1.7) (drill 1) (layers *.Cu *.Mask)
      (net 31 "Net-(CN1-Pad31)"))
    (pad 32 thru_hole oval (at 2.54 38.1 90) (size 1.7 1.7) (drill 1) (layers *.Cu *.Mask)
      (net 32 "Net-(CN1-Pad32)"))
    (model ${KISYS3DMOD}/Connector_PinHeader_2.54mm.3dshapes/PinHeader_2x16_P2.54mm_Vertical.wrl
      (at (xyz 0 0 0))
      (scale (xyz 1 1 1))
      (rotate (xyz 0 0 0))
    )
  )

  (gr_text 32 (at 198.4375 141.4145) (layer F.SilkS) (tstamp 5EBDCE18)
    (effects (font (size 0.6 0.6) (thickness 0.15)))
  )
  (gr_text GND (at 198.12 142.621) (layer F.SilkS) (tstamp 5EBDCE0E)
    (effects (font (size 0.6 0.6) (thickness 0.15)))
  )
  (gr_text VCC (at 151.1935 142.621) (layer F.SilkS)
    (effects (font (size 0.6 0.6) (thickness 0.15)))
  )
  (gr_text 1 (at 150.5585 141.4145) (layer F.SilkS)
    (effects (font (size 0.6 0.6) (thickness 0.15)))
  )
  (gr_line (start 151.197 79.816) (end 151.197 78.486) (layer B.SilkS) (width 0.12))
  (gr_line (start 152.527 79.816) (end 151.197 79.816) (layer B.SilkS) (width 0.12))
  (gr_line (start 191.957 79.816) (end 191.957 74.616) (layer B.SilkS) (width 0.12) (tstamp 5EBDCB6A))
  (gr_line (start 153.797 79.816) (end 191.957 79.816) (layer B.SilkS) (width 0.12))
  (gr_line (start 153.797 77.216) (end 153.797 79.816) (layer B.SilkS) (width 0.12))
  (gr_line (start 151.197 77.216) (end 153.797 77.216) (layer B.SilkS) (width 0.12))
  (gr_line (start 151.197 74.616) (end 151.197 77.216) (layer B.SilkS) (width 0.12))
  (gr_line (start 191.957 74.616) (end 151.197 74.616) (layer B.SilkS) (width 0.12))
  (gr_text A4 (at 162.687 71.9455 90) (layer B.SilkS) (tstamp 5EBDC0F6)
    (effects (font (size 1 1) (thickness 0.15)) (justify mirror))
  )
  (gr_text A6 (at 165.227 71.9455 90) (layer B.SilkS) (tstamp 5EBDC0F5)
    (effects (font (size 1 1) (thickness 0.15)) (justify mirror))
  )
  (gr_text A8 (at 167.767 71.9455 90) (layer B.SilkS) (tstamp 5EBDC0F4)
    (effects (font (size 1 1) (thickness 0.15)) (justify mirror))
  )
  (gr_text A10 (at 170.307 71.9455 90) (layer B.SilkS) (tstamp 5EBDC0F3)
    (effects (font (size 1 1) (thickness 0.15)) (justify mirror))
  )
  (gr_text A12 (at 172.9105 71.9455 90) (layer B.SilkS) (tstamp 5EBDC0F2)
    (effects (font (size 1 1) (thickness 0.15)) (justify mirror))
  )
  (gr_text A14 (at 175.387 71.9455 90) (layer B.SilkS) (tstamp 5EBDC0F1)
    (effects (font (size 1 1) (thickness 0.15)) (justify mirror))
  )
  (gr_text CLK (at 152.4635 72.0725 90) (layer B.SilkS) (tstamp 5EBDC0F0)
    (effects (font (size 1 1) (thickness 0.15)) (justify mirror))
  )
  (gr_text ~RD (at 155.067 71.9455 90) (layer B.SilkS) (tstamp 5EBDC0EF)
    (effects (font (size 1 1) (thickness 0.15)) (justify mirror))
  )
  (gr_text D6 (at 185.547 71.9455 90) (layer B.SilkS) (tstamp 5EBDC0EE)
    (effects (font (size 1 1) (thickness 0.15)) (justify mirror))
  )
  (gr_text D4 (at 183.007 71.9455 90) (layer B.SilkS) (tstamp 5EBDC0ED)
    (effects (font (size 1 1) (thickness 0.15)) (justify mirror))
  )
  (gr_text D2 (at 180.467 72.009 90) (layer B.SilkS) (tstamp 5EBDC0EC)
    (effects (font (size 1 1) (thickness 0.15)) (justify mirror))
  )
  (gr_text D0 (at 177.927 72.009 90) (layer B.SilkS) (tstamp 5EBDC0EB)
    (effects (font (size 1 1) (thickness 0.15)) (justify mirror))
  )
  (gr_text GND (at 190.627 71.9455 90) (layer B.SilkS) (tstamp 5EBDC0EA)
    (effects (font (size 1 1) (thickness 0.15)) (justify mirror))
  )
  (gr_text ~RST (at 188.087 71.9455 90) (layer B.SilkS) (tstamp 5EBDC0E9)
    (effects (font (size 1 1) (thickness 0.15)) (justify mirror))
  )
  (gr_text A0 (at 157.607 71.9455 90) (layer B.SilkS) (tstamp 5EBDC0E8)
    (effects (font (size 1 1) (thickness 0.15)) (justify mirror))
  )
  (gr_text A2 (at 160.147 71.9455 90) (layer B.SilkS) (tstamp 5EBDC0E7)
    (effects (font (size 1 1) (thickness 0.15)) (justify mirror))
  )
  (gr_text A5 (at 165.2905 82.7405 90) (layer B.SilkS) (tstamp 5EBDBF1F)
    (effects (font (size 1 1) (thickness 0.15)) (justify mirror))
  )
  (gr_text A7 (at 167.8305 82.7405 90) (layer B.SilkS) (tstamp 5EBDBF1E)
    (effects (font (size 1 1) (thickness 0.15)) (justify mirror))
  )
  (gr_text A9 (at 170.3705 82.7405 90) (layer B.SilkS) (tstamp 5EBDBF1D)
    (effects (font (size 1 1) (thickness 0.15)) (justify mirror))
  )
  (gr_text A11 (at 172.9105 82.6135 90) (layer B.SilkS) (tstamp 5EBDBF1C)
    (effects (font (size 1 1) (thickness 0.15)) (justify mirror))
  )
  (gr_text A13 (at 175.3235 82.6135 90) (layer B.SilkS) (tstamp 5EBDBF1B)
    (effects (font (size 1 1) (thickness 0.15)) (justify mirror))
  )
  (gr_text A15 (at 177.9905 82.6135 90) (layer B.SilkS) (tstamp 5EBDBF1A)
    (effects (font (size 1 1) (thickness 0.15)) (justify mirror))
  )
  (gr_text ~WR (at 155.1305 82.7405 90) (layer B.SilkS) (tstamp 5EBDD402)
    (effects (font (size 1 1) (thickness 0.15)) (justify mirror))
  )
  (gr_text D7 (at 188.214 82.55 90) (layer B.SilkS) (tstamp 5EBDBF18)
    (effects (font (size 1 1) (thickness 0.15)) (justify mirror))
  )
  (gr_text D5 (at 185.6105 82.55 90) (layer B.SilkS) (tstamp 5EBDBF17)
    (effects (font (size 1 1) (thickness 0.15)) (justify mirror))
  )
  (gr_text D3 (at 183.0705 82.6135 90) (layer B.SilkS) (tstamp 5EBDBF16)
    (effects (font (size 1 1) (thickness 0.15)) (justify mirror))
  )
  (gr_text D1 (at 180.5305 82.6135 90) (layer B.SilkS) (tstamp 5EBDBF15)
    (effects (font (size 1 1) (thickness 0.15)) (justify mirror))
  )
  (gr_text AUD (at 190.6905 82.55 90) (layer B.SilkS) (tstamp 5EBDBF14)
    (effects (font (size 1 1) (thickness 0.15)) (justify mirror))
  )
  (gr_text ~CS (at 157.6705 82.7405 90) (layer B.SilkS) (tstamp 5EBDBF13)
    (effects (font (size 1 1) (thickness 0.15)) (justify mirror))
  )
  (gr_text VCC (at 152.527 82.7405 90) (layer B.SilkS) (tstamp 5EBDD41A)
    (effects (font (size 1 1) (thickness 0.15)) (justify mirror))
  )
  (gr_text A1 (at 160.2105 82.7405 90) (layer B.SilkS) (tstamp 5EBDBF11)
    (effects (font (size 1 1) (thickness 0.15)) (justify mirror))
  )
  (gr_text A3 (at 162.7505 82.7405 90) (layer B.SilkS) (tstamp 5EBDBF10)
    (effects (font (size 1 1) (thickness 0.15)) (justify mirror))
  )
  (gr_text D7 (at 188.1505 82.3595 90) (layer F.SilkS) (tstamp 5EBD272B)
    (effects (font (size 1 1) (thickness 0.15)))
  )
  (gr_text D6 (at 185.547 71.882 90) (layer F.SilkS) (tstamp 5EBDBB78)
    (effects (font (size 1 1) (thickness 0.15)))
  )
  (gr_text D5 (at 185.547 82.3595 90) (layer F.SilkS) (tstamp 5EBD2727)
    (effects (font (size 1 1) (thickness 0.15)))
  )
  (gr_text D4 (at 183.007 71.882 90) (layer F.SilkS) (tstamp 5EBDBB64)
    (effects (font (size 1 1) (thickness 0.15)))
  )
  (gr_text D3 (at 183.007 82.423 90) (layer F.SilkS) (tstamp 5EBD2723)
    (effects (font (size 1 1) (thickness 0.15)))
  )
  (gr_text D2 (at 180.467 71.9455 90) (layer F.SilkS) (tstamp 5EBDBB49)
    (effects (font (size 1 1) (thickness 0.15)))
  )
  (gr_text D1 (at 180.467 82.423 90) (layer F.SilkS) (tstamp 5EBD271D)
    (effects (font (size 1 1) (thickness 0.15)))
  )
  (gr_text D0 (at 177.927 71.9455 90) (layer F.SilkS) (tstamp 5EBDBB3F)
    (effects (font (size 1 1) (thickness 0.15)))
  )
  (gr_text GND (at 190.627 71.882 90) (layer F.SilkS) (tstamp 5EBDBBA2)
    (effects (font (size 1 1) (thickness 0.15)))
  )
  (gr_text AUD (at 190.627 82.3595 90) (layer F.SilkS) (tstamp 5EBDBA7B)
    (effects (font (size 1 1) (thickness 0.15)))
  )
  (gr_text ~RST (at 188.087 71.882 90) (layer F.SilkS) (tstamp 5EBDBB8D)
    (effects (font (size 1 1) (thickness 0.15)))
  )
  (gr_text ~CS (at 157.607 82.55 90) (layer F.SilkS) (tstamp 5EBDD438)
    (effects (font (size 1 1) (thickness 0.15)))
  )
  (gr_text ~RD (at 155.067 71.882 90) (layer F.SilkS) (tstamp 5EBD270A)
    (effects (font (size 1 1) (thickness 0.15)))
  )
  (gr_text ~WR (at 155.067 82.55 90) (layer F.SilkS) (tstamp 5EBDD40B)
    (effects (font (size 1 1) (thickness 0.15)))
  )
  (gr_text CLK (at 152.4635 72.009 90) (layer F.SilkS) (tstamp 5EBDBAA2)
    (effects (font (size 1 1) (thickness 0.15)))
  )
  (gr_text A15 (at 177.927 82.423 90) (layer F.SilkS) (tstamp 5EBDBA1A)
    (effects (font (size 1 1) (thickness 0.15)))
  )
  (gr_text A14 (at 175.387 71.882 90) (layer F.SilkS) (tstamp 5EBDBB36)
    (effects (font (size 1 1) (thickness 0.15)))
  )
  (gr_text A13 (at 175.26 82.423 90) (layer F.SilkS) (tstamp 5EBD2684)
    (effects (font (size 1 1) (thickness 0.15)))
  )
  (gr_text A12 (at 172.9105 71.882 90) (layer F.SilkS) (tstamp 5EBDBB2D)
    (effects (font (size 1 1) (thickness 0.15)))
  )
  (gr_text A11 (at 172.847 82.423 90) (layer F.SilkS) (tstamp 5EBD2680)
    (effects (font (size 1 1) (thickness 0.15)))
  )
  (gr_text A10 (at 170.307 71.882 90) (layer F.SilkS) (tstamp 5EBD267E)
    (effects (font (size 1 1) (thickness 0.15)))
  )
  (gr_text A9 (at 170.307 82.55 90) (layer F.SilkS) (tstamp 5EBD267C)
    (effects (font (size 1 1) (thickness 0.15)))
  )
  (gr_text A8 (at 167.767 71.882 90) (layer F.SilkS) (tstamp 5EBD2677)
    (effects (font (size 1 1) (thickness 0.15)))
  )
  (gr_text A7 (at 167.767 82.55 90) (layer F.SilkS) (tstamp 5EBD2671)
    (effects (font (size 1 1) (thickness 0.15)))
  )
  (gr_text A6 (at 165.227 71.882 90) (layer F.SilkS) (tstamp 5EBDBB09)
    (effects (font (size 1 1) (thickness 0.15)))
  )
  (gr_text A5 (at 165.227 82.55 90) (layer F.SilkS) (tstamp 5EBDB9F3)
    (effects (font (size 1 1) (thickness 0.15)))
  )
  (gr_text A4 (at 162.687 71.882 90) (layer F.SilkS) (tstamp 5EBDBAE3)
    (effects (font (size 1 1) (thickness 0.15)))
  )
  (gr_text A3 (at 162.687 82.55 90) (layer F.SilkS) (tstamp 5EBDB9EE)
    (effects (font (size 1 1) (thickness 0.15)))
  )
  (gr_text A2 (at 160.147 71.882 90) (layer F.SilkS) (tstamp 5EBDBAD8)
    (effects (font (size 1 1) (thickness 0.15)))
  )
  (gr_text A1 (at 160.147 82.55 90) (layer F.SilkS) (tstamp 5EBDD43D)
    (effects (font (size 1 1) (thickness 0.15)))
  )
  (gr_text A0 (at 157.607 71.882 90) (layer F.SilkS) (tstamp 5EBDBABC)
    (effects (font (size 1 1) (thickness 0.15)))
  )
  (gr_text VCC (at 152.527 82.55 90) (layer F.SilkS) (tstamp 5EBDD421)
    (effects (font (size 1 1) (thickness 0.15)))
  )
  (gr_line (start 150 69.5) (end 193.3 69.5) (layer Edge.Cuts) (width 0.05) (tstamp 5EBD238D))
  (gr_line (start 150 85) (end 193.3 85) (layer Dwgs.User) (width 0.05))
  (gr_line (start 193.3 92) (end 193.3 69.5) (layer Edge.Cuts) (width 0.05))
  (gr_circle (center 174.65 109) (end 175.65 109) (layer Edge.Cuts) (width 0.05) (tstamp 5EBCC73E))
  (gr_circle (center 174.65 134) (end 178.65 134) (layer Edge.Cuts) (width 0.05) (tstamp 5EBCC73B))
  (gr_line (start 150 150) (end 150 69.5) (layer Edge.Cuts) (width 0.05) (tstamp 5EBCC74A))
  (gr_line (start 193.3 92) (end 199.3 92) (layer Edge.Cuts) (width 0.05) (tstamp 5EBCC747))
  (gr_line (start 199.3 150) (end 199.3 92) (layer Edge.Cuts) (width 0.05) (tstamp 5EBCC744))
  (gr_line (start 150 150) (end 199.3 150) (layer Edge.Cuts) (width 0.05) (tstamp 5EBCC741))

  (segment (start 151.366 146.518) (end 151.366 84.981) (width 0.25) (layer F.Cu) (net 1))
  (segment (start 152.527 83.82) (end 152.527 78.486) (width 0.25) (layer F.Cu) (net 1))
  (segment (start 151.366 84.981) (end 152.527 83.82) (width 0.25) (layer F.Cu) (net 1))
  (via (at 152.8445 140.97) (size 0.8) (drill 0.4) (layers F.Cu B.Cu) (net 2))
  (segment (start 152.866 140.9915) (end 152.8445 140.97) (width 0.25) (layer F.Cu) (net 2))
  (segment (start 152.866 146.558) (end 152.866 140.9915) (width 0.25) (layer F.Cu) (net 2))
  (segment (start 151.677001 76.795999) (end 152.527 75.946) (width 0.25) (layer B.Cu) (net 2))
  (segment (start 151.351999 77.121001) (end 151.677001 76.795999) (width 0.25) (layer B.Cu) (net 2))
  (segment (start 151.351999 139.477499) (end 151.351999 77.121001) (width 0.25) (layer B.Cu) (net 2))
  (segment (start 152.8445 140.97) (end 151.351999 139.477499) (width 0.25) (layer B.Cu) (net 2))
  (segment (start 154.366 146.558) (end 154.366 84.9655) (width 0.25) (layer F.Cu) (net 3))
  (segment (start 155.067 84.2645) (end 155.067 78.486) (width 0.25) (layer F.Cu) (net 3))
  (segment (start 154.366 84.9655) (end 155.067 84.2645) (width 0.25) (layer F.Cu) (net 3))
  (via (at 155.829 141.0335) (size 0.8) (drill 0.4) (layers F.Cu B.Cu) (net 4))
  (segment (start 155.866 141.0705) (end 155.829 141.0335) (width 0.25) (layer F.Cu) (net 4))
  (segment (start 155.866 146.558) (end 155.866 141.0705) (width 0.25) (layer F.Cu) (net 4))
  (segment (start 154.217001 76.795999) (end 155.067 75.946) (width 0.25) (layer B.Cu) (net 4))
  (segment (start 153.891999 77.121001) (end 154.217001 76.795999) (width 0.25) (layer B.Cu) (net 4))
  (segment (start 153.891999 139.096499) (end 153.891999 77.121001) (width 0.25) (layer B.Cu) (net 4))
  (segment (start 155.829 141.0335) (end 153.891999 139.096499) (width 0.25) (layer B.Cu) (net 4))
  (segment (start 157.366 146.558) (end 157.366 84.976) (width 0.25) (layer F.Cu) (net 5))
  (segment (start 157.607 84.735) (end 157.607 78.486) (width 0.25) (layer F.Cu) (net 5))
  (segment (start 157.366 84.976) (end 157.607 84.735) (width 0.25) (layer F.Cu) (net 5))
  (via (at 158.877 140.97) (size 0.8) (drill 0.4) (layers F.Cu B.Cu) (net 6))
  (segment (start 158.866 140.981) (end 158.877 140.97) (width 0.25) (layer F.Cu) (net 6))
  (segment (start 158.866 146.558) (end 158.866 140.981) (width 0.25) (layer F.Cu) (net 6))
  (segment (start 156.757001 76.795999) (end 157.607 75.946) (width 0.25) (layer B.Cu) (net 6))
  (segment (start 156.431999 77.121001) (end 156.757001 76.795999) (width 0.25) (layer B.Cu) (net 6))
  (segment (start 156.431999 137.959314) (end 156.431999 77.121001) (width 0.25) (layer B.Cu) (net 6))
  (segment (start 158.877 140.404315) (end 156.431999 137.959314) (width 0.25) (layer B.Cu) (net 6))
  (segment (start 158.877 140.97) (end 158.877 140.404315) (width 0.25) (layer B.Cu) (net 6))
  (segment (start 160.366 146.558) (end 160.366 84.9915) (width 0.25) (layer F.Cu) (net 7))
  (segment (start 160.147 84.7725) (end 160.147 78.486) (width 0.25) (layer F.Cu) (net 7))
  (segment (start 160.366 84.9915) (end 160.147 84.7725) (width 0.25) (layer F.Cu) (net 7))
  (via (at 161.8615 140.97) (size 0.8) (drill 0.4) (layers F.Cu B.Cu) (net 8))
  (segment (start 161.866 140.9745) (end 161.8615 140.97) (width 0.25) (layer F.Cu) (net 8))
  (segment (start 161.866 146.558) (end 161.866 140.9745) (width 0.25) (layer F.Cu) (net 8))
  (segment (start 159.297001 76.795999) (end 160.147 75.946) (width 0.25) (layer B.Cu) (net 8))
  (segment (start 158.971999 138.080499) (end 158.971999 77.121001) (width 0.25) (layer B.Cu) (net 8))
  (segment (start 158.971999 77.121001) (end 159.297001 76.795999) (width 0.25) (layer B.Cu) (net 8))
  (segment (start 161.8615 140.97) (end 158.971999 138.080499) (width 0.25) (layer B.Cu) (net 8))
  (segment (start 163.366 146.558) (end 163.366 85.046) (width 0.25) (layer F.Cu) (net 9))
  (segment (start 162.687 84.367) (end 162.687 78.486) (width 0.25) (layer F.Cu) (net 9))
  (segment (start 163.366 85.046) (end 162.687 84.367) (width 0.25) (layer F.Cu) (net 9))
  (segment (start 164.866 143.308) (end 164.3695 142.8115) (width 0.25) (layer F.Cu) (net 10))
  (segment (start 164.866 146.558) (end 164.866 143.308) (width 0.25) (layer F.Cu) (net 10))
  (via (at 164.338 140.9065) (size 0.8) (drill 0.4) (layers F.Cu B.Cu) (net 10))
  (segment (start 164.3695 140.938) (end 164.338 140.9065) (width 0.25) (layer F.Cu) (net 10))
  (segment (start 164.3695 142.8115) (end 164.3695 140.938) (width 0.25) (layer F.Cu) (net 10))
  (segment (start 161.837001 76.795999) (end 162.687 75.946) (width 0.25) (layer B.Cu) (net 10))
  (segment (start 161.511999 77.121001) (end 161.837001 76.795999) (width 0.25) (layer B.Cu) (net 10))
  (segment (start 161.511999 138.080499) (end 161.511999 77.121001) (width 0.25) (layer B.Cu) (net 10))
  (segment (start 164.338 140.9065) (end 161.511999 138.080499) (width 0.25) (layer B.Cu) (net 10))
  (segment (start 166.366 143.308) (end 165.481 142.423) (width 0.25) (layer F.Cu) (net 11))
  (segment (start 166.366 146.558) (end 166.366 143.308) (width 0.25) (layer F.Cu) (net 11))
  (segment (start 165.481 142.423) (end 165.481 85.0265) (width 0.25) (layer F.Cu) (net 11))
  (segment (start 165.227 84.7725) (end 165.227 78.486) (width 0.25) (layer F.Cu) (net 11))
  (segment (start 165.481 85.0265) (end 165.227 84.7725) (width 0.25) (layer F.Cu) (net 11))
  (segment (start 167.866 143.308) (end 166.5605 142.0025) (width 0.25) (layer F.Cu) (net 12))
  (segment (start 167.866 146.558) (end 167.866 143.308) (width 0.25) (layer F.Cu) (net 12))
  (via (at 166.5605 140.9065) (size 0.8) (drill 0.4) (layers F.Cu B.Cu) (net 12))
  (segment (start 166.5605 142.0025) (end 166.5605 140.9065) (width 0.25) (layer F.Cu) (net 12))
  (segment (start 164.377001 76.795999) (end 165.227 75.946) (width 0.25) (layer B.Cu) (net 12))
  (segment (start 164.051999 77.121001) (end 164.377001 76.795999) (width 0.25) (layer B.Cu) (net 12))
  (segment (start 164.051999 138.397999) (end 164.051999 77.121001) (width 0.25) (layer B.Cu) (net 12))
  (segment (start 166.5605 140.9065) (end 164.051999 138.397999) (width 0.25) (layer B.Cu) (net 12))
  (segment (start 169.366 143.308) (end 167.767 141.709) (width 0.25) (layer F.Cu) (net 13))
  (segment (start 167.767 141.709) (end 167.767 78.486) (width 0.25) (layer F.Cu) (net 13))
  (segment (start 169.366 146.558) (end 169.366 143.308) (width 0.25) (layer F.Cu) (net 13))
  (segment (start 170.866 143.308) (end 169.1005 141.5425) (width 0.25) (layer F.Cu) (net 14))
  (segment (start 170.866 146.558) (end 170.866 143.308) (width 0.25) (layer F.Cu) (net 14))
  (via (at 169.1005 140.9065) (size 0.8) (drill 0.4) (layers F.Cu B.Cu) (net 14))
  (segment (start 169.1005 141.5425) (end 169.1005 140.9065) (width 0.25) (layer F.Cu) (net 14))
  (segment (start 166.591999 138.397999) (end 166.591999 77.121001) (width 0.25) (layer B.Cu) (net 14))
  (segment (start 166.917001 76.795999) (end 167.767 75.946) (width 0.25) (layer B.Cu) (net 14))
  (segment (start 166.591999 77.121001) (end 166.917001 76.795999) (width 0.25) (layer B.Cu) (net 14))
  (segment (start 169.1005 140.9065) (end 166.591999 138.397999) (width 0.25) (layer B.Cu) (net 14))
  (segment (start 170.307 79.688081) (end 170.307 78.486) (width 0.25) (layer F.Cu) (net 15))
  (segment (start 170.300302 79.694779) (end 170.307 79.688081) (width 0.25) (layer F.Cu) (net 15))
  (segment (start 170.300302 141.242302) (end 170.300302 79.694779) (width 0.25) (layer F.Cu) (net 15))
  (segment (start 172.366 143.308) (end 170.300302 141.242302) (width 0.25) (layer F.Cu) (net 15))
  (segment (start 172.366 146.558) (end 172.366 143.308) (width 0.25) (layer F.Cu) (net 15))
  (via (at 171.45 140.9065) (size 0.8) (drill 0.4) (layers F.Cu B.Cu) (net 16))
  (segment (start 171.4645 140.9065) (end 171.45 140.9065) (width 0.25) (layer F.Cu) (net 16))
  (segment (start 173.866 143.308) (end 171.4645 140.9065) (width 0.25) (layer F.Cu) (net 16))
  (segment (start 173.866 146.558) (end 173.866 143.308) (width 0.25) (layer F.Cu) (net 16))
  (segment (start 169.131999 77.121001) (end 169.457001 76.795999) (width 0.25) (layer B.Cu) (net 16))
  (segment (start 169.131999 138.588499) (end 169.131999 77.121001) (width 0.25) (layer B.Cu) (net 16))
  (segment (start 169.457001 76.795999) (end 170.307 75.946) (width 0.25) (layer B.Cu) (net 16))
  (segment (start 171.45 140.9065) (end 169.131999 138.588499) (width 0.25) (layer B.Cu) (net 16))
  (segment (start 175.366 146.558) (end 175.366 140.102) (width 0.25) (layer F.Cu) (net 17))
  (segment (start 175.366 140.102) (end 179.324 136.144) (width 0.25) (layer F.Cu) (net 17))
  (segment (start 179.324 136.144) (end 179.324 131.8895) (width 0.25) (layer F.Cu) (net 17))
  (segment (start 172.847 125.4125) (end 172.847 78.486) (width 0.25) (layer F.Cu) (net 17))
  (segment (start 179.324 131.8895) (end 172.847 125.4125) (width 0.25) (layer F.Cu) (net 17))
  (via (at 176.8475 140.208) (size 0.8) (drill 0.4) (layers F.Cu B.Cu) (net 18))
  (segment (start 176.866 140.2265) (end 176.8475 140.208) (width 0.25) (layer F.Cu) (net 18))
  (segment (start 176.866 146.558) (end 176.866 140.2265) (width 0.25) (layer F.Cu) (net 18))
  (segment (start 176.8475 140.208) (end 179.8955 137.16) (width 0.25) (layer B.Cu) (net 18))
  (segment (start 179.8955 137.16) (end 179.8955 132.461) (width 0.25) (layer B.Cu) (net 18))
  (segment (start 179.8955 132.461) (end 170.942 123.5075) (width 0.25) (layer B.Cu) (net 18))
  (segment (start 170.942 123.5075) (end 170.942 84.963) (width 0.25) (layer B.Cu) (net 18))
  (segment (start 171.997001 76.795999) (end 172.847 75.946) (width 0.25) (layer B.Cu) (net 18))
  (segment (start 171.671999 84.233001) (end 171.671999 77.121001) (width 0.25) (layer B.Cu) (net 18))
  (segment (start 171.671999 77.121001) (end 171.997001 76.795999) (width 0.25) (layer B.Cu) (net 18))
  (segment (start 170.942 84.963) (end 171.671999 84.233001) (width 0.25) (layer B.Cu) (net 18))
  (segment (start 178.366 146.558) (end 178.366 140.0865) (width 0.25) (layer F.Cu) (net 19))
  (segment (start 178.366 140.0865) (end 180.721 137.7315) (width 0.25) (layer F.Cu) (net 19))
  (segment (start 180.721 137.7315) (end 180.721 130.6195) (width 0.25) (layer F.Cu) (net 19))
  (segment (start 180.721 130.6195) (end 176.7205 126.619) (width 0.25) (layer F.Cu) (net 19))
  (segment (start 176.7205 126.619) (end 176.7205 85.09) (width 0.25) (layer F.Cu) (net 19))
  (segment (start 175.387 83.7565) (end 175.387 78.486) (width 0.25) (layer F.Cu) (net 19))
  (segment (start 176.7205 85.09) (end 175.387 83.7565) (width 0.25) (layer F.Cu) (net 19))
  (via (at 179.8955 140.208) (size 0.8) (drill 0.4) (layers F.Cu B.Cu) (net 20))
  (segment (start 179.866 140.2375) (end 179.8955 140.208) (width 0.25) (layer F.Cu) (net 20))
  (segment (start 179.866 146.558) (end 179.866 140.2375) (width 0.25) (layer F.Cu) (net 20))
  (segment (start 174.211999 77.121001) (end 174.537001 76.795999) (width 0.25) (layer B.Cu) (net 20))
  (segment (start 174.211999 83.598001) (end 174.211999 77.121001) (width 0.25) (layer B.Cu) (net 20))
  (segment (start 172.72 85.09) (end 174.211999 83.598001) (width 0.25) (layer B.Cu) (net 20))
  (segment (start 172.72 121.539) (end 172.72 85.09) (width 0.25) (layer B.Cu) (net 20))
  (segment (start 181.6735 130.4925) (end 172.72 121.539) (width 0.25) (layer B.Cu) (net 20))
  (segment (start 181.6735 137.864315) (end 181.6735 130.4925) (width 0.25) (layer B.Cu) (net 20))
  (segment (start 179.8955 139.642315) (end 181.6735 137.864315) (width 0.25) (layer B.Cu) (net 20))
  (segment (start 174.537001 76.795999) (end 175.387 75.946) (width 0.25) (layer B.Cu) (net 20))
  (segment (start 179.8955 140.208) (end 179.8955 139.642315) (width 0.25) (layer B.Cu) (net 20))
  (segment (start 181.366 146.558) (end 181.366 139.309) (width 0.25) (layer F.Cu) (net 21))
  (segment (start 181.366 139.309) (end 182.626 138.049) (width 0.25) (layer F.Cu) (net 21))
  (segment (start 182.626 138.049) (end 182.626 130.429) (width 0.25) (layer F.Cu) (net 21))
  (segment (start 182.626 130.429) (end 178.435 126.238) (width 0.25) (layer F.Cu) (net 21))
  (segment (start 178.435 126.238) (end 178.435 85.0265) (width 0.25) (layer F.Cu) (net 21))
  (segment (start 177.927 84.5185) (end 177.927 78.486) (width 0.25) (layer F.Cu) (net 21))
  (segment (start 178.435 85.0265) (end 177.927 84.5185) (width 0.25) (layer F.Cu) (net 21))
  (via (at 182.88 140.1445) (size 0.8) (drill 0.4) (layers F.Cu B.Cu) (net 22))
  (segment (start 182.866 140.1585) (end 182.88 140.1445) (width 0.25) (layer F.Cu) (net 22))
  (segment (start 182.866 146.558) (end 182.866 140.1585) (width 0.25) (layer F.Cu) (net 22))
  (segment (start 182.88 140.1445) (end 182.88 129.8575) (width 0.25) (layer B.Cu) (net 22))
  (segment (start 177.077001 76.795999) (end 177.927 75.946) (width 0.25) (layer B.Cu) (net 22))
  (segment (start 176.751999 77.121001) (end 177.077001 76.795999) (width 0.25) (layer B.Cu) (net 22))
  (segment (start 176.751999 123.729499) (end 176.751999 77.121001) (width 0.25) (layer B.Cu) (net 22))
  (segment (start 182.88 129.8575) (end 176.751999 123.729499) (width 0.25) (layer B.Cu) (net 22))
  (segment (start 184.366 143.308) (end 184.3405 143.2825) (width 0.25) (layer F.Cu) (net 23))
  (segment (start 184.366 146.558) (end 184.366 143.308) (width 0.25) (layer F.Cu) (net 23))
  (segment (start 184.3405 143.2825) (end 184.3405 129.8575) (width 0.25) (layer F.Cu) (net 23))
  (segment (start 180.467 125.984) (end 180.467 78.486) (width 0.25) (layer F.Cu) (net 23))
  (segment (start 184.3405 129.8575) (end 180.467 125.984) (width 0.25) (layer F.Cu) (net 23))
  (segment (start 185.866 140.146) (end 185.8645 140.1445) (width 0.25) (layer F.Cu) (net 24))
  (via (at 185.8645 140.1445) (size 0.8) (drill 0.4) (layers F.Cu B.Cu) (net 24))
  (segment (start 185.866 146.558) (end 185.866 140.146) (width 0.25) (layer F.Cu) (net 24))
  (segment (start 185.8645 140.1445) (end 185.8645 129.667) (width 0.25) (layer B.Cu) (net 24))
  (segment (start 179.617001 76.795999) (end 180.467 75.946) (width 0.25) (layer B.Cu) (net 24))
  (segment (start 179.291999 77.121001) (end 179.617001 76.795999) (width 0.25) (layer B.Cu) (net 24))
  (segment (start 179.291999 123.094499) (end 179.291999 77.121001) (width 0.25) (layer B.Cu) (net 24))
  (segment (start 185.8645 129.667) (end 179.291999 123.094499) (width 0.25) (layer B.Cu) (net 24))
  (segment (start 187.366 129.708) (end 183.007 125.349) (width 0.25) (layer F.Cu) (net 25))
  (segment (start 183.007 125.349) (end 183.007 78.486) (width 0.25) (layer F.Cu) (net 25))
  (segment (start 187.366 146.558) (end 187.366 129.708) (width 0.25) (layer F.Cu) (net 25))
  (via (at 188.849 140.208) (size 0.8) (drill 0.4) (layers F.Cu B.Cu) (net 26))
  (segment (start 188.866 140.225) (end 188.849 140.208) (width 0.25) (layer F.Cu) (net 26))
  (segment (start 188.866 146.558) (end 188.866 140.225) (width 0.25) (layer F.Cu) (net 26))
  (segment (start 188.849 140.208) (end 188.849 130.175) (width 0.25) (layer B.Cu) (net 26))
  (segment (start 181.831999 77.121001) (end 182.157001 76.795999) (width 0.25) (layer B.Cu) (net 26))
  (segment (start 181.831999 123.157999) (end 181.831999 77.121001) (width 0.25) (layer B.Cu) (net 26))
  (segment (start 182.157001 76.795999) (end 183.007 75.946) (width 0.25) (layer B.Cu) (net 26))
  (segment (start 188.849 130.175) (end 181.831999 123.157999) (width 0.25) (layer B.Cu) (net 26))
  (segment (start 190.366 143.308) (end 190.3095 143.2515) (width 0.25) (layer F.Cu) (net 27))
  (segment (start 190.366 146.558) (end 190.366 143.308) (width 0.25) (layer F.Cu) (net 27))
  (segment (start 190.3095 143.2515) (end 190.3095 130.2385) (width 0.25) (layer F.Cu) (net 27))
  (segment (start 185.547 125.476) (end 185.547 78.486) (width 0.25) (layer F.Cu) (net 27))
  (segment (start 190.3095 130.2385) (end 185.547 125.476) (width 0.25) (layer F.Cu) (net 27))
  (via (at 191.8335 140.208) (size 0.8) (drill 0.4) (layers F.Cu B.Cu) (net 28))
  (segment (start 191.866 140.2405) (end 191.8335 140.208) (width 0.25) (layer F.Cu) (net 28))
  (segment (start 191.866 146.558) (end 191.866 140.2405) (width 0.25) (layer F.Cu) (net 28))
  (segment (start 191.8335 140.208) (end 191.8335 129.9845) (width 0.25) (layer B.Cu) (net 28))
  (segment (start 184.697001 76.795999) (end 185.547 75.946) (width 0.25) (layer B.Cu) (net 28))
  (segment (start 184.182001 122.333001) (end 184.182001 77.310999) (width 0.25) (layer B.Cu) (net 28))
  (segment (start 184.182001 77.310999) (end 184.697001 76.795999) (width 0.25) (layer B.Cu) (net 28))
  (segment (start 191.8335 129.9845) (end 184.182001 122.333001) (width 0.25) (layer B.Cu) (net 28))
  (segment (start 193.366 146.558) (end 193.366 130.12) (width 0.25) (layer F.Cu) (net 29))
  (segment (start 188.087 124.841) (end 188.087 78.486) (width 0.25) (layer F.Cu) (net 29))
  (segment (start 193.366 130.12) (end 188.087 124.841) (width 0.25) (layer F.Cu) (net 29))
  (via (at 194.8815 140.335) (size 0.8) (drill 0.4) (layers F.Cu B.Cu) (net 30))
  (segment (start 194.866 140.3505) (end 194.8815 140.335) (width 0.25) (layer F.Cu) (net 30))
  (segment (start 194.866 146.558) (end 194.866 140.3505) (width 0.25) (layer F.Cu) (net 30))
  (segment (start 194.8815 140.335) (end 194.8815 130.048) (width 0.25) (layer B.Cu) (net 30))
  (segment (start 186.911999 77.121001) (end 187.237001 76.795999) (width 0.25) (layer B.Cu) (net 30))
  (segment (start 186.911999 122.078499) (end 186.911999 77.121001) (width 0.25) (layer B.Cu) (net 30))
  (segment (start 187.237001 76.795999) (end 188.087 75.946) (width 0.25) (layer B.Cu) (net 30))
  (segment (start 194.8815 130.048) (end 186.911999 122.078499) (width 0.25) (layer B.Cu) (net 30))
  (segment (start 196.366 146.558) (end 196.366 130.2625) (width 0.25) (layer F.Cu) (net 31))
  (segment (start 190.627 124.5235) (end 190.627 78.486) (width 0.25) (layer F.Cu) (net 31))
  (segment (start 196.366 130.2625) (end 190.627 124.5235) (width 0.25) (layer F.Cu) (net 31))
  (via (at 197.866 140.335) (size 0.8) (drill 0.4) (layers F.Cu B.Cu) (net 32))
  (segment (start 197.866 146.558) (end 197.866 140.335) (width 0.25) (layer F.Cu) (net 32))
  (segment (start 197.866 140.335) (end 197.866 129.921) (width 0.25) (layer B.Cu) (net 32))
  (segment (start 189.777001 76.795999) (end 190.627 75.946) (width 0.25) (layer B.Cu) (net 32))
  (segment (start 189.451999 77.121001) (end 189.777001 76.795999) (width 0.25) (layer B.Cu) (net 32))
  (segment (start 189.451999 121.506999) (end 189.451999 77.121001) (width 0.25) (layer B.Cu) (net 32))
  (segment (start 197.866 129.921) (end 189.451999 121.506999) (width 0.25) (layer B.Cu) (net 32))

)
